<?xml version="1.0" encoding="UTF-8" standalone="no"?>
<!-- Created with Inkscape (http://www.inkscape.org/) -->

<svg
   width="10mm"
   height="10mm"
   viewBox="0 0 280 280"
   version="1.1"
   id="svg5"
   sodipodi:docname="icon.svg"
   inkscape:version="1.1 (c4e8f9ed74, 2021-05-24)"
   xmlns:inkscape="http://www.inkscape.org/namespaces/inkscape"
   xmlns:sodipodi="http://sodipodi.sourceforge.net/DTD/sodipodi-0.dtd"
   xmlns:xlink="http://www.w3.org/1999/xlink"
   xmlns="http://www.w3.org/2000/svg"
   xmlns:svg="http://www.w3.org/2000/svg">
  <sodipodi:namedview
     id="namedview23"
     pagecolor="#ffffff"
     bordercolor="#666666"
     borderopacity="1.0"
     inkscape:pageshadow="2"
     inkscape:pageopacity="0.0"
     inkscape:pagecheckerboard="0"
     inkscape:document-units="mm"
     showgrid="false"
     inkscape:zoom="0.31337352"
     inkscape:cx="167.5317"
     inkscape:cy="572.79888"
     inkscape:window-width="1366"
     inkscape:window-height="709"
     inkscape:window-x="0"
     inkscape:window-y="0"
     inkscape:window-maximized="1"
     inkscape:current-layer="svg5" />
  <defs
     id="defs2">
    <linearGradient
       id="linearGradient9381">
      <stop
         style="stop-color:#ff0000;stop-opacity:1"
         offset="0"
         id="stop9377" />
      <stop
         style="stop-color:#00ff00;stop-opacity:1"
         offset="0.51055151"
         id="stop9547" />
      <stop
         style="stop-color:#0000ff;stop-opacity:1"
         offset="1"
         id="stop9379" />
    </linearGradient>
    <linearGradient
       xlink:href="#linearGradient9381"
       id="linearGradient9383"
       x1="31.543802"
       y1="94.477333"
       x2="61.546883"
       y2="64.4785"
       gradientUnits="userSpaceOnUse" />
    <linearGradient
       xlink:href="#linearGradient9381"
       id="linearGradient857"
       gradientUnits="userSpaceOnUse"
       x1="31.543802"
       y1="94.477333"
       x2="61.546883"
       y2="64.4785" />
    <linearGradient
       xlink:href="#linearGradient9381"
       id="linearGradient859"
       gradientUnits="userSpaceOnUse"
       x1="31.543802"
       y1="94.477333"
       x2="61.546883"
       y2="64.4785" />
    <linearGradient
       xlink:href="#linearGradient9381"
       id="linearGradient861"
       gradientUnits="userSpaceOnUse"
       x1="31.543802"
       y1="94.477333"
       x2="61.546883"
       y2="64.4785" />
    <linearGradient
       xlink:href="#linearGradient9381"
       id="linearGradient863"
       gradientUnits="userSpaceOnUse"
       x1="31.543802"
       y1="94.477333"
       x2="61.546883"
       y2="64.4785" />
    <linearGradient
       xlink:href="#linearGradient9381"
       id="linearGradient865"
       gradientUnits="userSpaceOnUse"
       x1="31.543802"
       y1="94.477333"
       x2="61.546883"
       y2="64.4785" />
    <linearGradient
       xlink:href="#linearGradient9381"
       id="linearGradient867"
       gradientUnits="userSpaceOnUse"
       x1="31.543802"
       y1="94.477333"
       x2="61.546883"
       y2="64.4785" />
  </defs>
  <g
     id="layer1"
     transform="matrix(8.5329478,0,0,8.5352669,2.9769105e-6,-2.9765328e-6)">
    <g
       id="g9345"
       style="fill:url(#linearGradient9383);fill-opacity:1"
       transform="translate(-31.039624,-63.978497)">
      <path
         style="fill:url(#linearGradient857);fill-opacity:1;stroke:#000000;stroke-width:1;stroke-linecap:butt;stroke-linejoin:miter;stroke-miterlimit:4;stroke-dasharray:none;stroke-opacity:1"
         d="m 31.539823,64.478497 h 10.002353 v 9.999612 h -9.998374 z"
         id="path3426" />
      <path
         style="fill:url(#linearGradient859);fill-opacity:1;stroke:#000000;stroke-width:1;stroke-linecap:butt;stroke-linejoin:miter;stroke-miterlimit:4;stroke-dasharray:none;stroke-opacity:1"
         d="m 41.542176,64.478497 h 10.002353 v 9.999612 h -9.998374 z"
         id="path3426-3" />
      <path
         style="fill:url(#linearGradient861);fill-opacity:1;stroke:#000000;stroke-width:1;stroke-linecap:butt;stroke-linejoin:miter;stroke-miterlimit:4;stroke-dasharray:none;stroke-opacity:1"
         d="m 51.544529,64.478497 h 10.002353 v 9.999612 h -9.998374 z"
         id="path3426-6" />
      <path
         style="fill:url(#linearGradient863);fill-opacity:1;stroke:#000000;stroke-width:1;stroke-linecap:butt;stroke-linejoin:miter;stroke-miterlimit:4;stroke-dasharray:none;stroke-opacity:1"
         d="m 31.539823,74.478109 h 10.002353 v 9.999612 h -9.998374 z"
         id="path3426-7" />
      <path
         style="fill:url(#linearGradient865);fill-opacity:1;stroke:#000000;stroke-width:1;stroke-linecap:butt;stroke-linejoin:miter;stroke-miterlimit:4;stroke-dasharray:none;stroke-opacity:1"
         d="m 41.546155,74.478109 h 10.002353 v 9.999612 h -9.998374 z"
         id="path3426-5" />
      <path
         style="fill:url(#linearGradient867);fill-opacity:1;stroke:#000000;stroke-width:1;stroke-linecap:butt;stroke-linejoin:miter;stroke-miterlimit:4;stroke-dasharray:none;stroke-opacity:1"
         d="m 31.539823,84.477721 h 10.002353 v 9.999612 h -9.998374 z"
         id="path3426-35" />
    </g>
  </g>
</svg>
